Tidy time series forecasting with fable
…
4.3 Broom functionality

augment(), tidy(), glance()

4.4 Components

In many cases, a model can be used to extract features or components from data in a similar way to decomposition methods. We use the components verb to extract a tsibble of data features that have been extracted via modelling or decomposition.

State space models such as ETS are well suited to this functionality as the states often represent features of interest.

UKLungDeaths %>% 
  ETS(mdeaths) %>% 
  components

## # A tsibble: 73 x 4 [1M]
##       index level slope season
##       <mth> <dbl> <dbl>  <dbl>
##  1 1974 Jan 1672. -4.33   373.
##  2 1974 Feb 1667. -4.36   611.
##  3 1974 Mar 1663. -4.44   620.
##  4 1974 Apr 1658. -4.49   483.
##  5 1974 May 1654. -4.47   122.
##  6 1974 Jun 1649. -4.46  -207.
##  7 1974 Jul 1645. -4.48  -304.
##  8 1974 Aug 1640. -4.48  -370.
##  9 1974 Sep 1636. -4.48  -476.
## 10 1974 Oct 1632. -4.47  -485.
## # ... with 63 more rows
…
