Ideas for tidy time series forecasting
…
For the end user, creating simulations would work like this:

library(fable)
library(tsibbledata)
UKLungDeaths %>% 
  LM(mdeaths ~ fourier("year", K = 4) + fdeaths) %>% 
  simulate(UKLungDeaths, times = 5)

## # A tsibble: 360 x 3 [1M]
## # Key:       .rep [5]
##       index  .rep  .sim
##       <mth> <int> <dbl>
##  1 1974 Jan     1 2351.
##  2 1974 Feb     1 1912.
##  3 1974 Mar     1 2031.
##  4 1974 Apr     1 1857.
##  5 1974 May     1 1476.
##  6 1974 Jun     1 1108.
##  7 1974 Jul     1 1248.
##  8 1974 Aug     1 1058.
##  9 1974 Sep     1  828.
## 10 1974 Oct     1 1470.
## # ... with 350 more rows
…
Or, if they wanted to simulate beyond the sample:

library(lubridate)
UKLungDeaths %>% 
  filter(year(index) <= 1978) %>% 
  LM(mdeaths ~ fourier("year", K = 4) + fdeaths) %>% 
  simulate(
    UKLungDeaths %>% filter(year(index) > 1978),
    times = 5
  )

## # A tsibble: 60 x 3 [1M]
## # Key:       .rep [5]
##       index  .rep  .sim
##       <mth> <int> <dbl>
##  1 1979 Jan     1 2127.
##  2 1979 Feb     1 2000.
##  3 1979 Mar     1 1925.
##  4 1979 Apr     1 1720.
##  5 1979 May     1 1404.
##  6 1979 Jun     1 1245.
##  7 1979 Jul     1 1215.
##  8 1979 Aug     1 1143.
##  9 1979 Sep     1 1135.
## 10 1979 Oct     1  987.
## # ... with 50 more rows
…
